{
    "keyboard_name": "Alt13_KB",
    "manufacturer": "gitlab.com/alt13",
    "url": "gitlab.com/alt13",
    "maintainer": "Alt13",
    "usb": {
        "vid": "0x0000",
        "pid": "0x0000",
        "device_version": "0.0.1"
    },
    "processor": "atmega32u4",
    "bootloader": "caterina",
}

